<svg width="20" height="18" viewBox="0 0 20 18" fill="none" xmlns="http://www.w3.org/2000/svg">
<path d="M17 16H3V17C3 17.2652 2.89464 17.5196 2.70711 17.7071C2.51957 17.8946 2.26522 18 2 18H1C0.734784 18 0.48043 17.8946 0.292893 17.7071C0.105357 17.5196 0 17.2652 0 17V8L2.513 1.298C2.65593 0.916693 2.91186 0.588102 3.24656 0.356153C3.58126 0.124204 3.97878 -5.06984e-05 4.386 1.55178e-08H15.614C16.0212 -5.06984e-05 16.4187 0.124204 16.7534 0.356153C17.0881 0.588102 17.3441 0.916693 17.487 1.298L20 8V17C20 17.2652 19.8946 17.5196 19.7071 17.7071C19.5196 17.8946 19.2652 18 19 18H18C17.7348 18 17.4804 17.8946 17.2929 17.7071C17.1054 17.5196 17 17.2652 17 17V16ZM2.136 8H17.864L15.614 2H4.386L2.136 8ZM4.5 13C4.89782 13 5.27936 12.842 5.56066 12.5607C5.84196 12.2794 6 11.8978 6 11.5C6 11.1022 5.84196 10.7206 5.56066 10.4393C5.27936 10.158 4.89782 10 4.5 10C4.10218 10 3.72064 10.158 3.43934 10.4393C3.15804 10.7206 3 11.1022 3 11.5C3 11.8978 3.15804 12.2794 3.43934 12.5607C3.72064 12.842 4.10218 13 4.5 13ZM15.5 13C15.8978 13 16.2794 12.842 16.5607 12.5607C16.842 12.2794 17 11.8978 17 11.5C17 11.1022 16.842 10.7206 16.5607 10.4393C16.2794 10.158 15.8978 10 15.5 10C15.1022 10 14.7206 10.158 14.4393 10.4393C14.158 10.7206 14 11.1022 14 11.5C14 11.8978 14.158 12.2794 14.4393 12.5607C14.7206 12.842 15.1022 13 15.5 13Z" fill="#42BE65"/>
</svg>
