<svg width="12" height="11" viewBox="0 0 12 11" fill="none" xmlns="http://www.w3.org/2000/svg">
<path d="M5.15025 1.00149C5.31498 0.494496 6.03224 0.494497 6.19698 1.00149L7.09443 3.76356C7.1681 3.9903 7.37939 4.14381 7.61779 4.14381H10.522C11.0551 4.14381 11.2767 4.82596 10.8455 5.1393L8.4959 6.84636C8.30303 6.98648 8.22232 7.23487 8.29599 7.4616L9.19345 10.2237C9.35818 10.7307 8.7779 11.1523 8.34663 10.8389L5.99707 9.13187C5.8042 8.99174 5.54303 8.99174 5.35016 9.13187L3.0006 10.8389C2.56932 11.1523 1.98905 10.7307 2.15378 10.2237L3.05123 7.4616C3.1249 7.23487 3.0442 6.98648 2.85133 6.84636L0.501768 5.1393C0.0704937 4.82596 0.29214 4.14381 0.825224 4.14381H3.72944C3.96784 4.14381 4.17913 3.9903 4.2528 3.76356L5.15025 1.00149Z" fill="#FFD335"/>
</svg>
